[{"saving": "$360", "name": "Austin IT University Online \u2013 Online Deal\n            ", "price": "$39", "value": "$399", "discount": "90%", "details": "Exercises, multimedia aids, and exam simulators aid in Microsoft Office certification, strengthening resum\u00e9s and enhancing marketability", "address": "Goose Island 600 W Chicago Ave ,    Chicago Illinois 60654  "},
{"saving": "$15", "name": "Austin Speakeasy \u2013 Downtown\n            ", "price": "$15", "value": "$30", "discount": "50%", "details": "One hour of bowling on reserved lanes inside a three-level club, where live bands and DJs perform nightly", "address": "Downtown Downtown 412D Congress Ave ,     412D Congress Ave ,     Austin Texas 78701 (512) 476-8017   Austin Texas 78701 (512) 476-8017  ", "description": "One Hour of Vintage Bowling at Speakeasy ($30 Value)"},
{"saving": "$80", "name": "Austin Professional Bartending School \u2013 Online Deal\n            ", "price": "$19", "value": "$99", "discount": "81%", "details": "Online classes and quizzes designed to prepare students for work behind the bar"},
{"saving": "$21", "name": "Austin My Gym Children's Fitness Center \u2013 Southwest Austin\n            ", "price": "$19", "value": "$40", "discount": "53%", "details": "Children jump, climb, and explore fun fitness equipment that changes setup weekly and often includes a trampoline, slides, and a ball pit", "address": "Southwest Austin Southwest Austin 5307 W Hwy. 290 ,     5307 W Hwy. 290 ,     Austin Texas 78735 (512) 444-6496   Austin Texas 78735 (512) 444-6496  ", "options": ["$19 for 5 active-play passes (up to a $40 value)", "$36 for 10 active-play passes (up to an $80 value)"], "description": "5 or 10 Active-Play Indoor Playground Passes for One Child (Up to 55% Off)"},
{"saving": "$51", "name": "Austin Artaculture Academy \u2013 Austin\n            ", "price": "$49", "value": "$100", "discount": "51%", "details": "First-time flame workers make sets of drink stirrers in an intro class, which imparts safety tips, tool usage, and basics of the craft", "address": "Austin Austin 6407 South Pleasant Valley Road ,     6407 South Pleasant Valley Road ,     Austin Texas 78744 (512) 529-6085   Austin Texas 78744 (512) 529-6085  ", "options": ["$49 for a two-hour ", " class for one (a $100 value)", "$89 for a two-hour introductory flame-working class for two (a $200 value)"], "description": "Introductory Flame-Working Class for One or Two (Up to 56% Off)"},
{"saving": "$25", "name": "Austin Austin Clan of Everything Social \u2013 Multiple Locations\n            ", "price": "$24", "value": "$49", "discount": "51%", "details": "Men and women gather at area venues for social leagues in ping-pong, bowling, sand volleyball, and karaoke", "address": "Bowling: The Goodnight Ping Pong: Easy Tiger Volleyball: Hanover's Draught Haus Bowling: The Goodnight Ping Pong: Easy Tiger Volleyball: Hanover's Draught Haus Karaoke: The Common Interest 2700 W Anderson Ln ,    709 E. Sixth Street ,    108 East Main Street ,    2700 W Anderson Ln ,    709 E. Sixth Street ,    108 East Main Street ,    8440 Burnet Rd ,    Austin Texas 78757   Austin Texas 78701   Pflugerville Texas 78660   Austin Texas 78757   Austin Texas 78701   Pflugerville Texas 78660   Austin Texas 78757  "},
{"saving": "$29", "name": "Austin eMeals \u2013 Online Deal\n            ", "price": "$29", "value": "$58", "discount": "50%", "details": "Start 2013 with a year\u2019s worth of weekly shopping lists that showcase flavorful, healthful recipes customized by store, diet, and price", "options": ["$29 for 12 months of weekly online dinner plans (a $58 value)", "$39 for 12 months of weekly online lunch and dinner plans (a $106 value)", "$49 for 12 months of weekly online breakfast, lunch, and dinner plans (a $142 value)"], "description": "12 Months of Weekly Online Meal Plans for Breakfast, Lunch, and Dinner (Up to 65% Off). Three Options Available."},
{"saving": "$6", "name": "Austin Witte Museum \u2013 San Antonio\n            ", "price": "$6", "value": "$12", "discount": "50%", "details": "Animatronic dinosaurs move realistically in exhibit at the hands-on history and science museum", "address": "San Antonio San Antonio 3801 Broadway Street ,     3801 Broadway Street ,     San Antonio Texas 78209 (210) 357-1910   San Antonio Texas 78209 (210) 357-1910  ", "options": ["$15 for two adult admissions to the ", " exhibit (up to a $30 value)", "$29 for four adult admissions to the exhibit (up to a $60 value)", "$6 for one child's admission to the exhibit (up to a $12 value) "], "description": "\"Dinosaurs Unearthed\" Exhibit for Two or Four Adults or One Child (Up to 52% Off)"},
{"saving": "$51", "name": "Austin Onion Creek Club \u2013 Onion Creek\n            ", "price": "$49", "value": "$100", "discount": "51%", "details": "Club membership unlocks tennis courts and fitness centers after golf and lunch; weekend or weekday golf includes cart and range balls", "address": "Onion Creek Onion Creek 2510 Onion Creek Pkwy. ,     2510 Onion Creek Pkwy. ,     Austin Texas 78747 (512) 282-2162   Austin Texas 78747 (512) 282-2162  ", "options": ["$49 for 18 holes of golf with a cart rental and one bucket of range balls Monday\u2013Thursday (a $100 value)", "$59 for 18 holes of golf with a cart rental and one bucket of range balls Friday\u2013Sunday (a $120 value)", "$139 for a one-day club membership for two (a $300 total value)", "18 holes of golf with a cart and unlimited range balls for two (a $240 value)", "$40 voucher for the ", " at The Demaret Grille", "Two $10 pro-shop vouchers", "Access to the ", ", ", ", and ", "Ability to pre-book personal-training sessions and private golf and tennis lessons", "Childcare for $8 per hour (not covered by this deal)"], "description": "18-Hole Round of Golf with Cart Rental on a Weekday or Weekend or a One-Day Club Membership for Two (Up to 54% Off)"},
{"saving": "$52", "name": "Austin Edwin Watts Golf Academy \u2013 Round Rock\n            ", "price": "$23", "value": "$75", "discount": "69%", "details": "Swing- & putting-analysis sessions use JC Video & Tomi technologies to capture technique so instructor can diagnose poor tendencies.", "address": "Round Rock Round Rock 3631 Greenlawn Blvd. ,    3631 Greenlawn Blvd. ,    Round Rock Texas 78664   Round Rock Texas 78664  ", "options": ["$23 for a 60-minute private swing evaluation (a $75 value)", "$23 for a 30-minute private putting evaluation (a $75 value)"], "description": "60-Minute Golf-Swing Evaluation or 30-Minute Putting Evaluation (69% Off)"},
{"saving": "$698", "name": "Austin Excel With Business \u2013 Online Deal\n            ", "price": "$79", "value": "$777", "discount": "90%", "details": "Online course covers all the elements of building a successful website through video tutorials, exercises, and tests", "options": ["$79 for an online ", " for one (a $777 value)", "$299 for an online web-design course for five (a $3,885 value)"], "description": "Online Web-Design Course for One or Five (Up to 92% Off)"},
{"saving": "$20", "name": "Amarillo Worn for Peace \u2013 Online Deal\n            ", "price": "$30", "value": "$50", "discount": "40%", "details": "Refugee women supplement their incomes by creating hand-knit scarves, bracelets, and other items while working at home", "address": "Victoria 1301 E. Rio Grande ,    Victoria Texas 77901  "},
{"saving": "$80", "name": "Austin Round Rock Honey \u2013 Chisholm Trail Industrial Park\n            ", "price": "$45", "value": "$125", "discount": "64%", "details": "Honey makers impart beekeeping knowledge to students in hands-on classes that include all equipment and full-body keeper's suits", "address": "Chisholm Trail Industrial Park Chisholm Trail Industrial Park 1308 Chisholm Trail, #107 ,     1308 Chisholm Trail, #107 ,     Round Rock Texas 78681 (512) 828-5416   Round Rock Texas 78681 (512) 828-5416  ", "options": ["$45 for a three-hour introductory beekeeping class for one (a $125 value)", "$79 for a three-hour introductory beekeeping class for two (a $250 value)"], "description": "Three-Hour Introductory Beekeeping Class for One or Two (Up to 68% Off)"},
{"saving": "$10", "name": "Austin Texas Online Defensive Driving  \u2013 Online Deal\n            ", "price": "$25", "value": "$35", "discount": "29%", "details": "Online traffic course written by TEA-licensed instructors masks driving-record citations and may help lower insurance rates"},
{"saving": "$7", "name": "Austin Pioneer Farms \u2013 Austin\n            ", "price": "$7", "value": "$14", "discount": "50%", "details": "Restored places explore Texas history, including areas of west-bound settlers, Native American & German immigrants, across 90 wooded acres", "address": "Austin Austin 10621 Pioneer Farms Dr. ,     10621 Pioneer Farms Dr. ,     Austin Texas 78754 (512) 837-5331   Austin Texas 78754 (512) 837-5331  ", "options": ["$7 for farm ", " for one adult and one child (a $14 value)", "$14 for farm admission for two adults and two children (a $28 value)", "$19 for farm admission for two adults and four children (a $40 value)"], "description": "History-Farm Outing for One Adult and Child, Two Adults and Two Kids, or Two Adults and Four Kids (Up to 53% Off)"},
{"saving": "$25", "name": "Austin The Sugar Factory by Gay Isber Designs \u2013 Brentwood\n            ", "price": "$25", "value": "$50", "discount": "50%", "details": "Mothers and daughters assemble necklaces or mothers create bracelets in an art studio run by jewelry designer Gay Isber", "address": "Brentwood Brentwood 1800 W Koenig Ln. ,     1800 W Koenig Ln. ,     Austin Texas 78756 (512) 949-9322   Austin Texas 78756 (512) 949-9322  ", "options": ["$44 for a mother-daughter necklace-making class for up to four people (a $90 value)", "$45 for a Mother's Day bracelet-making class for two (a $90 value)", "$79 for a Mother's Day bracelet-making class for four (a $180 value)", "$25 for $50 worth of jewelry and crafts"], "description": "Mother's Day Jewelry-Making Classes or $25 for $50 Worth of Jewelry and Crafts. Four Options Available."},
{"saving": "$71", "name": "Austin Silver Fox Farms \u2013 Dripping Springs-Wimberley\n            ", "price": "$59", "value": "$130", "discount": "55%", "details": "Experienced AA-show equestrian leads students through personalized lessons in newly built hunter and jumper arenas", "address": "Dripping Springs-Wimberley Dripping Springs-Wimberley 520 Post Oak Rd. ,     520 Post Oak Rd. ,     Wimberley Texas 78676 (512) 847-2105   Wimberley Texas 78676 (512) 847-2105  "},
{"saving": "$51", "name": "Austin Elite Golf Performance \u2013 Steiner Ranch\n            ", "price": "$19", "value": "$70", "discount": "73%", "details": "Instructors impart short- and long-game-improving tactics to golfers during one-hour golf-school sessions", "address": "Steiner Ranch Steiner Ranch 4506 Weleteka Dr., Suite 200 ,    4506 Weleteka Dr., Suite 200 ,    Austin Texas 78734   Austin Texas 78734  ", "options": ["$19 for a one-hour ", " session for one (a $70 value)", "$35 for a one-hour golf-school session for two (a $140 value)"], "description": "One-Hour Golf School for One or Two (Up to 75% Off)"},
{"saving": "$56", "name": "Austin Balance Dance Studios \u2013 Barton Hills\n            ", "price": "$29", "value": "$85", "discount": "66%", "details": "Balance, coordination, and a boost in self-confidence are fostered during disco, belly-dance, and Broadway-dance classes", "address": "Barton Hills Barton Hills 4544 S Lamar Blvd., Building 200 ,     4544 S Lamar Blvd., Building 200 ,     Austin Texas 78745 (512) 215-8727   Austin Texas 78745 (512) 215-8727  ", "options": ["$29 for 5 adult dance classes (an $85 value)", "$45 for 10 adult dance classes (a $150 value)", "$59 for 15 adult dance classes (a $225 value)"], "description": "5, 10, or 15 Adult Dance Classes (Up to 74% Off)"},
{"saving": "$9", "name": "Austin Dublin Bottling Works \u2013 Dublin\n            ", "price": "$10", "value": "$19", "discount": "47%", "details": "Tours explore the inner workings of the 120-year-old bottling plant that first sealed the caps of the original Dr. Pepper", "address": "Dublin Dublin 105 E Elm St ,     105 E Elm St ,     Dublin Texas 76446 (254) 434-4879   Dublin Texas 76446 (254) 434-4879  ", "options": ["$10 for tour admission and floats for two ($19 value)", "$19 for tour admission and floats for four ($38 value)", "$27 for tour admission and floats for six ($57 value)"], "description": "Soda-Bottling Plant Tour with Floats for Two, Four, or Six (Up to 53% Off)"},
{"saving": "$204", "name": "Austin American Fitness Institute \u2013 Online Deal\n            ", "price": "$95", "value": "$299", "discount": "68%", "details": "Online materials allow students to set their own pace over a four-week period before testing to be certified as a personal trainer"},
{"address": "6808 N Lamar Boulevard Suite B-120 Austin Texas 78752 512-323-9822"},
{"saving": "$61", "name": "Austin Heart & Sole Massage \u2013 Northwest Austin\n            ", "price": "$59", "value": "$120", "discount": "51%", "details": "Classes teach students how to ease muscular tension", "address": "Northwest Austin Northwest Austin 13740 Research Blvd, Bldg M, Ste 6, Building M, Suite 6 ,     13740 Research Blvd, Bldg M, Ste 6, Building M, Suite 6 ,     Austin Texas 78750 (512) 506-9775   Austin Texas 78750 (512) 506-9775  ", "options": ["$59 for a one-hour private couples-massage class (a $120 value)", "$85 for a 90-minute private couples-massage class (a $175 value)"], "description": "One-Hour or 90-Minute Private Couples-Massage Class (51% Off)"},
{"saving": "$36", "name": "Austin Mrs. Taylor's Sewing School \u2013 Temple\n            ", "price": "$29", "value": "$65", "discount": "55%", "details": "Hands-on course immerses students in sewing basics, including how to use tools and how to choose patterns and fabrics", "address": "Temple Temple 17 W Upshaw Ave ,     17 W Upshaw Ave ,     Temple Texas 76501 (877) 277-2313   Temple Texas 76501 (877) 277-2313  ", "options": ["$29 for a four-week introductory sewing course for one (a $65 value)", "$55 for a four-week introductory sewing course for two (a $130 value)"], "description": "Four-Week Introductory Sewing Course for One or Two (Up to 58% Off)"},
{"saving": "$41", "name": "Austin Online CE Creditz \u2013 Online Deal\n            ", "price": "$39", "value": "$80", "discount": "51%", "details": "This 12-hour course covers topics such as Facebook and email marketing, deal-site promotions, and web presence for massage therapists", "options": ["Knowing your worth", "LMT websites and powerful, positive web presences", "LMT classifieds and Facebook marketing", "LMT email marketing and deal-site promotions  "]},
{"price": "$799", "address": "Riviera Maya Riviera Maya ,    Riviera Maya -  ", "options": ["Round-trip airfare", "Accommodations at ", "All meals and snacks", "Unlimited domestic beverages", "Daily organized activities", "Nightly entertainment", "Hotel taxes and gratuities"], "name": "Atlanta Riviera Maya Vacation with Airfare \u2013 Riviera Maya\n              ", "description": "Five-, Six-, or Seven-Night All-Inclusive Vacation with Airfare from Vacation Express"},
{"saving": "$30", "name": "Austin Bollywood Shake \u2013 Northwest Austin\n            ", "price": "$20", "value": "$50", "discount": "60%", "details": "Classical Indian dance meets hip-hop and R&B in choreography-focused dance classes or workouts that blend strength-training and cardio", "address": "Northwest Austin Northwest Austin 10700 Anderson Mill Rd, Ste 208 ,    10700 Anderson Mill Rd, Ste 208 ,    Austin Texas 78750   Austin Texas 78750  ", "options": ["$20 for one month of unlimited Bollywood workout classes for one (a $50 value)", "$35 for one month of unlimited Bollywood workout classes for two (a $100 value)", "$25 for a four-week beginner Bollywood dance class for one (a $49 value)", "$45 for a four-week beginner Bollywood dance class for two (a $98 value)"], "description": "One Month of Bollywood Workout Classes or Four Weeks of Beginner Bollywood Dance Classes for One or Two (Up to 65% Off) "},
{"price": "$1,199", "address": "Cities Across Central Ecuador Hosteria Cabanas del Lago Termas de Papallacta Cities Across Central Ecuador Hosteria Cabanas del Lago Termas de Papallacta La Casa del Suizo Hacienda Manteles Avenida Amazonas N19-14 y Patria ,    Lago San Pablo Otavalo Imbabura ,    Km 65 via Baeza ,    Avenida Amazonas N19-14 y Patria ,    Lago San Pablo Otavalo Imbabura ,    Km 65 via Baeza ,    Julio Zaldumbide 397 y Valladolid ,    Ecological Route Banos, Patate km. 18.5 (Via Las Antenas) ,    Quito -   Otavalo -   Papallacta -   Quito -   Otavalo -   Papallacta -   Quito -   Banos -  ", "options": ["Round-trip airfare from Miami (MIA)", "Two nights at ", " or ", "One night at ", " or ", " in Otavalo", "One night at ", " ", "Two nights at ", " in the Amazon", "One night at ", " in Patate", "Seven breakfasts, three lunches, and four dinners", "All transportation and hotel porterage fees", "Sightseeing per itinerary in an air-conditioned motor coach ", "Entrance fees per itinerary", "Services of English-speaking guides"], "name": "Miami Tour of Ecuador and the Amazon Rainforest with Airfare \u2013 Cities Across Central Ecuador\n              ", "description": "Eight-Day Tour with Round-Trip Airfare, Accommodations, Some Meals, and Guided Sightseeing Tours"},
{"saving": "$99", "name": "Austin Gray Line \u2013 Austin\n            ", "price": "$79", "value": "$178", "discount": "56%", "details": "A guided tour of three Texas wineries or vineyards; includes a stop for shopping and lunch in the historic town of Fredericksburg", "address": "Austin Austin 1135 Gunter, Suite 102 ,     1135 Gunter, Suite 102 ,     Austin Texas 78702 (210) 229-7200   Austin Texas 78702 (210) 229-7200  ", "options": ["$79 for a Texas Hill Country Wine Tour for two (a $178 value)", "$149 for a Texas Hill Country Wine Tour for four (a $356 value)"], "description": "Texas Hill Country Wine Tour for Two or Four (Up to 58% Off)"},
{"saving": "$6.98", "name": "Amarillo Greenaid Seedbombs \u2013 Online Deal\n            ", "price": "$19", "value": "$25.98", "discount": "27%", "details": "Seedbombs hand-rolled by economically disadvantaged people make it easy to plant native trees and flowers in urban spaces", "address": "Victoria 1301 East Rio Grande Street ,    Victoria Texas 77901  ", "options": ["One slingshot and bandana per pack", "Six pet forage seedbombs", "Six pollinator-friendly seedbombs", "Six arugula seedbombs", "Two wooden sling shots, a bandana, and a mapping kit to track guerilla-gardening efforts", "Six salsa-garden seedbombs", "Six garden-herb seedbombs", "Six arugula seedbombs", "Two wooden sling shots, a bandana, and a mapping kit to track guerilla-gardening efforts"], "description": "Seedbomb 10-Pack or Themed Gift Box Made by Economically Disadvantaged Individuals from Greenaid Seedbombs (Up to $9.99 Off)"},
{"saving": "$156.62", "name": "Austin Rapid Spanish \u2013 Austin\n            ", "price": "$104", "value": "$260.62", "discount": "60%", "details": "Four-hour Spanish language sessions incorporate snacks, games, music, and kinesthetic learning instead of textbook-style learning", "address": "Austin Austin 7113 Burnet Rd, Ste 110 ,     7113 Burnet Rd, Ste 110 ,     Austin Texas 78757 (512) 406-4841   Austin Texas 78757 (512) 406-4841  ", "options": ["$104 for a 12-hour Spanish language course for levels 1\u20135 (a $260.62 value)", "$204 for a 32-hour Spanish language course for levels 1\u20135 (a $695 value)"], "description": "12- or 32-Hour Spanish Intro Course (Up to 71% Off)"},
{"saving": "$1,000", "name": "New York City 5-star Ritz-Carlton Vacation with Round-Trip Airfare \u2013 Dublin, Ireland\n              ", "price": "$999", "value": "$1,999", "discount": "50%", "address": "Dublin, Ireland Dublin, Ireland The Ritz-Carlton Powerscourt, Powerscourt Estate ,    The Ritz-Carlton Powerscourt, Powerscourt Estate ,    Enniskerry -   Enniskerry -  ", "options": ["Round-trip airfare from New York (JFK) (flight time: about 7 hours), Los Angeles (LAX) (flight time: about 13 hours), or Chicago (ORD) (flight time: about 8 hours) ", "Car rental (manual transmission) for the duration of your trip", "Six nights at the 5-star ", " in County Wicklow. Note: On October 1, 2013, The Ritz-Carlton, Powerscourt will be re-launched as a luxury independent hotel. The hotel will build on the five-star standard of excellence and service already associated with the property."], "description": "7-Day Vacation with Round-Trip Airfare, 5-Star Accommodations (Powerscourt Hotel after 10/1), and Rental Car"},
{"saving": "$76", "name": "Austin Free to Run \u2013 Austin\n            ", "price": "$49", "value": "$125", "discount": "61%", "details": "Perfect your stride and get fleeter feet with the aid of an expert instructor and video feedback", "address": "Austin Austin 8455 Spicewood Springs Road ,    8455 Spicewood Springs Road ,    Austin Texas 78750   Austin Texas 78750  ", "options": ["$49 for a two-hour running clinic (a $125 value)"]},
{"address": "1055 PR 7022 Lexington Texas 78947 979-773-9100"},
{"saving": "$56", "name": "Austin Don Strange Ranch Adventure Challenge Course \u2013 Boerne\n            ", "price": "$49", "value": "$105", "discount": "53%", "details": "A working longhorn ranch challenges visitors to ascend five-story log towers and speed across ziplines", "address": "Boerne Boerne 103 Waring Welfare Rd. ,     103 Waring Welfare Rd. ,     Boerne Texas 78006 (830) 995-4377   Boerne Texas 78006 (830) 995-4377  ", "options": ["Alpine tower climb (a $65 value)", "Zipline ride (a $30 value)", "Burger with fries (an $8 value)", "Soda (a $2 value)"], "description": "Zipline Ride and Alpine Tower Climb with Lunch (53% Off)"},
{"saving": "$35", "name": "Austin Outdoor Waco \u2013 Waco\n            ", "price": "$25", "value": "$60", "discount": "58%", "details": "Traverse the waterways of the Brazos River with up to eight people on a giant paddleboard; up to two may embark in kayaks or canoes", "address": "Waco Waco 215 S University Parks Dr, Ste 101 ,    215 S University Parks Dr, Ste 101 ,    Waco Texas 76701   Waco Texas 76701  ", "options": ["$25 for a two-hour kayak, canoe, or stand-up paddleboard rental for up to two (up to a $60 value) ", "$100 for a half-day giant paddleboard rental for up to eight (up to a $250 value) ", "$40 for a half-day kayak, canoe, or stand-up paddleboard rental for up to two (up to a $100 value)"], "description": "Half-Day Giant Paddle Board Rental, Two-Hour Kayak, Canoe, or Paddleboard Rental for Two, or Half Day Rental for Two (Up to 60% Off)"},
{"address": "3000 Highway 290 West Dripping Springs Texas 78620 512-858-2463"},
{"saving": "$51", "name": "Austin Rock About \u2013 Southwest Travis\n            ", "price": "$49", "value": "$100", "discount": "51%", "details": "Instructors supply gear during course that teaches fledgling climbers basic skills out on real rock faces", "address": "Southwest Travis Southwest Travis 23610 Hamilton Pool Rd ,    23610 Hamilton Pool Rd ,    Dripping Springs Texas 78620   Dripping Springs Texas 78620  ", "options": ["July 20", "July 27", "August 3", "August 10", "August 17", "August 24", "August 31", "September 7", "September 14"]},
{"saving": "$53", "name": "Austin Pilot Knob Vineyard \u2013 Bertram\n            ", "price": "$45", "value": "$98", "discount": "54%", "details": "Vineyard spanning 112 acres of Texas hill country hosts picnics complete with fine cheeses, meats and chocolates ideal for wine pairings", "address": "Bertram Bertram 3125 County Rd 212 ,     3125 County Rd 212 ,     Bertram Texas 78605 (512) 489-2999   Bertram Texas 78605 (512) 489-2999  ", "options": ["$45 for a picnic in the vines for two (a $98 value)", "$90 for a picnic in the vines for four (a $196 value)"], "description": "Picnic in the Vines for Two or Four with Cheeses, Fruit and Chocolate, and Wineglasses (54% Off)"},
{"saving": "$70", "name": "Austin Joyce Willett School of Dance \u2013 Northwest Austin\n            ", "price": "$25", "value": "$95", "discount": "74%", "details": "Teachers emphasize socialization as students explore jazz, ballet, tap, and hip-hop, or role-play through theater-arts classes", "address": "Northwest Austin Northwest Austin 12687 Research Boulevard ,    12687 Research Boulevard ,    Austin Texas 78759   Austin Texas 78759  ", "options": ["$25 for four dance classes for children aged 2\u201318 (up to a $95 value)", "$49 for four theater-arts preschool classes for children aged 2\u20135 (a $105 value) "], "description": "Four Children's Dance or Theater-Arts Preschool Classes at Joyce Willett School of Dance (Up to 74% Off)"},
{"saving": "$114", "name": "Austin Thermalriders LLC \u2013 Luling\n            ", "price": "$165", "value": "$279", "discount": "41%", "details": "After ground instruction, certified instructors take students up to 2,500 feet, from which they soar for up to 20 minutes", "address": "Luling Luling Carter Memorial Airport, 2953 Magnolia St. (Hwy. 183), Hangar #6 ,    Carter Memorial Airport, 2953 Magnolia St. (Hwy. 183), Hangar #6 ,    Luling Texas 78648   Luling Texas 78648  ", "options": ["$165 for a Discovery tandem hang-gliding flight for one (a $279 value)", "$299 for a Discovery tandem hang-gliding flight for two (a $558 value)"], "description": "Tandem Hang-gliding Flight for One or Two (Up to 46% Off)"},
{"address": "20552 Highland Lake Drive Lago Vista Texas 78645 512-382-6529"},
{"address": "511 West Live Oak Austin Texas 78704 512-442-8141"},
{"saving": "$739.98", "name": "Austin TESOL Express \u2013 Online Deal\n            ", "price": "$69", "value": "$808.98", "discount": "91%", "details": "Online courses accredit students to teach English to non-English speakers, and teacher resource guides help with professional development", "options": ["160-hour premier ", " (a $729 value)", "Job hunter's guide (a $39.99 value)", "Professional development guide (a $39.99 value)"]},
{"address": "501 S Austin Avenue Building 2 Georgetown Texas 78626 512-686-1107"},
{"saving": "$698", "name": "Amarillo Social Media Marketing University \u2013 Online Deal\n            ", "price": "$99", "value": "$797", "discount": "88%", "details": "Social-media strategists impart the skills needed to succeed in Internet marketing, with online courses in Facebook, LinkedIn, Twitter", "address": "Victoria 1301 East Rio Grande Street ,    Victoria Texas 77901  ", "options": ["$99 for an ", " (a $797 value)", "$199 for an ", " (a $3,997 value) "], "description": "Fast-Track Course or Complete Social-Media Marketing Certification (Up to $3,997 Value)"},
{"saving": "$125", "name": "Austin Stunt Ranch \u2013 Dripping Springs-Wimberley\n            ", "price": "$125", "value": "$250", "discount": "50%", "details": "Professional stuntmen help guests stage five film-ready explosions or supervise kids playing on the studio's ziplines and rope courses", "address": "Dripping Springs-Wimberley Dripping Springs-Wimberley 13317 Fitzhugh Rd. ,     13317 Fitzhugh Rd. ,     Austin Texas 78736 (512) 749-1383   Austin Texas 78736 (512) 749-1383  ", "options": ["$125 for a five-hour workshop in ", " for 18 and older (a $250 value)", "$199 for a basic-stunt party for up to 10 kids at the ", " (a $399 value)"], "description": "Special Effects and Pyrotechnics for Film Workshop for 18 and Older or Stunt Party for Up to 10 Kids (Half Off)"},
{"saving": "$22", "name": "Austin City Sightseeing San Antonio \u2013 Downtown\n            ", "price": "$22", "value": "$44", "discount": "50%", "details": "Aboard a double-decker tour bus, for 50-minutes recorded commentary enriches sights of the city's museums, markets, restaurants, & landmarks", "address": "Downtown Downtown 204 Alamo Plaza ,    204 Alamo Plaza ,    San Antonio Texas 78205   San Antonio Texas 78205  ", "options": ["$22 for a ", " for two (up to a $44 value) ", "$32 for a double-decker bus tour for a family of two adults and three children (a $65 value) ", "$42 for a double-decker bus tour for four (up to an $88 value)", "$62 for a double-decker bus tour for six (up to a $132 value)", "$82 for a double-decker bus tour for ten (a $190 value) "], "description": "Double-Decker Bus Tour for Two, Four, Six, Ten, or a Family of Five (Up to 57% Off)"},
{"saving": "$116.55", "name": "Amarillo Dangerous Guitar \u2013 Online Deal\n            ", "price": "$18", "value": "$134.55", "discount": "87%", "details": "More than 650 high-definition videos give professional instruction in a wide range of playing styles", "address": "Victoria 1301 East Rio Grande Street ,    Victoria Texas 77901  "},
{"address": "112 Northridge Rd. Marble Falls Texas 78654 830-693-4311"},
{"saving": "$201", "name": "Austin Capturing True Emotion \u2013 Online Deal\n            ", "price": "$49", "value": "$250", "discount": "80%", "details": "Through online videos and coursework, a professional photographer imparts how to have complete control of a digital camera", "description": "Eight-Course Online Photography Course ($250 Value)"},
{"saving": "$101", "name": "Austin Action Angler & Outdoor Center \u2013 New Braunfels\n            ", "price": "$99", "value": "$200", "discount": "51%", "details": "During trips down the Guadalupe River, courses with 2:1 student-to-instructor ratios cover fly selection, casting & equipment nuances.", "address": "New Braunfels New Braunfels 9751 River  Rd. ,     9751 River  Rd. ,     New Braunfels Texas 78132 (830) 708-3474   New Braunfels Texas 78132 (830) 708-3474  ", "options": ["$99 for a two-hour introductory fly-fishing class for up to two (a $200 value)", "$180 for a two-hour introductory fly-fishing class for up to four (a $400 value) "], "description": "Introductory Fly-Fishing Class for Two or Four at Action Angler & Outdoor Center in New Braunfels (Up to 55% Off)"},
{"saving": "$18", "name": "Austin Austin Handmade Arts Market \u2013 Austin\n            ", "price": "$17", "value": "$35", "discount": "51%", "details": "During two-hour class, students create their own earrings, necklace, or bracelet under the instruction of a professional artist", "address": "Austin Austin 411 Monroe Street West ,    411 Monroe Street West ,    Austin Texas 78704   Austin Texas 78704  ", "options": ["$17 for a jewelry-making class for one (a $35 value), plus a complimentary wine or beer", "$34 for a jewelry-making class for two (a $70 value), plus a complimentary wine or beer"], "description": "Jewelry-Making Class for One or Two (Up to 51% Off)"},
{"saving": "$411", "name": "Amarillo Photo Art Studio \u2013 Online Deal\n            ", "price": "$39", "value": "$450", "discount": "91%", "details": "During comprehensive 14-hour online courses, pupils master digital-photography techniques and polish image-editing or web-development skills", "address": "Victoria 1301 East Rio Grande Street ,    Victoria Texas 77901  ", "options": ["$39 for one online certification program in digital photography, Photoshop, Web Animation (Flash), or Web Development (Dreamweaver) ($450 value) ", "$59 for two of the above courses (a $900 value)", "$79 for all four of the above courses (a $1,800 value) "], "description": "One, Two, or Four 14-Hour Online Photography- or Adobe-Certification Classes (Up to 96% Off)"},
{"saving": "$1,500", "name": "Austin My First Music Video \u2013 Austin\n            ", "price": "$1,500", "value": "$3,000", "discount": "50%", "details": "During each four-hour session, singers record vocals and film a four-scene music video; a final cut arrives approximately 10 days later", "address": "Austin Austin 3317 Manor Rd. ,     3317 Manor Rd. ,     Austin Texas 78723 (512) 291-2314   Austin Texas 78723 (512) 291-2314  ", "options": ["$1,500 for four hours of music video production (a $3,000 value) "], "description": "Four Hours of Music Video Production"},
{"saving": "$23", "name": "Austin Austin Handmade Art \u2013 Austin\n            ", "price": "$22", "value": "$45", "discount": "51%", "details": "Students paint two wine glasses and drink complimentary beer, wine, and soda during the 90-minute class", "address": "Austin Austin 411 Monroe Street West ,    411 Monroe Street West ,    Austin Texas 78704   Austin Texas 78704  ", "options": ["$22 for a ", " for one (a $45 value)", "$45 for Wine Glass Painting classes for two (a $90 value)"], "description": "Wine Glass Painting Class with Complimentary Wine, Beer, and Soft Drinks for One or Two (Up to 51% Off)"},
{"saving": "$48", "name": "Austin Hidden Falls Golf Club \u2013 Meadowlakes\n            ", "price": "$47", "value": "$95", "discount": "51%", "details": "18-hole, 6,732-yard course marked by towering pecan and oak trees, expansive greens, and water on six holes in beautiful Texas Hill Country", "address": "Meadowlakes Meadowlakes 220 Meadowlakes Dr ,     220 Meadowlakes Dr ,     Meadowlakes Texas 78654 (830) 693-3300   Meadowlakes Texas 78654 (830) 693-3300  ", "options": ["$47 for 18 holes of golf for two with cart rental and two small range ball buckets (up to a $95 value)", "$89 for 18 holes of golf for four with cart rental and four small range ball buckets (up to a $190 value)", "$59 for a one-day club membership package for two (up to a $121.70 value)"], "description": "18-Hole Round of Golf for Two or Four with Cart and Range Balls or One-Day Membership Package for Two (Up to 53% Off)"},
{"saving": "$40.85", "name": "Amarillo MindSparke \u2013 Online Deal\n            ", "price": "$19", "value": "$59.85", "discount": "68%", "details": "Brain training program improves cognitive stamina, focus, and memory with increasingly complex visual and aural working memory exercises", "address": "Victoria 1301 East Rio Grande Street ,    Victoria Texas 77901  ", "options": ["$19 for a three-month Brain Fitness Pro subscription (a $59.85 value)", "$29 for a six-month Brain Fitness Pro subscription (a $119.70 value) "], "description": "Three- or Six-Month Brain Fitness Program Subscription (Up to 76% Off)"},
{"saving": "$46", "name": "Austin Miles of Mud \u2013 Smithville\n            ", "price": "$39", "value": "$85", "discount": "54%", "details": "The mud-drenched, 4-mile race course is dotted with up to 40 obstacles; afterward, racers celebrate their accomplishment with beer", "address": "Smithville Smithville 578 Farm to Market Road 153 ,     578 Farm to Market Road 153 ,     Smithville Texas 78957 (512) 988-0988   Smithville Texas 78957 (512) 988-0988  ", "options": ["$39 for a mud-run entry for one (up to an $85 value) ", "$78 for a mud-run entry for two (up to an $170 value) "], "description": "Mud-Run Entry for One or Two with Beer, T-Shirt, and Parking on Saturday, November 9 (Up to 54% Off)"},
{"saving": "$25", "name": "Austin Lori Ragland Performance Horses \u2013 Kyle-Buda\n            ", "price": "$25", "value": "$50", "discount": "50%", "details": "Expert instructors pair up riders with even-tempered steeds before teaching safety essentials, after which pupils hop into the saddles.", "address": "Kyle-Buda Kyle-Buda 124 Sunrise Dr. ,     124 Sunrise Dr. ,     Kyle Texas 78640 (512) 295-4714   Kyle Texas 78640 (512) 295-4714  ", "options": ["$25 for a private one-hour ", " for one (a $50 value)", "$49 for a private one-hour horseback-riding lesson for two (a $100 value)"], "description": "Private One-Hour Horseback-Riding Lesson for One or Two at Lori Ragland Performance Horses (Up to 51% Off)"},
{"saving": "$20", "name": "Austin Paint Nite \u2013 Multiple Locations\n            ", "price": "$25", "value": "$45", "discount": "44%", "details": "At local bars and restaurants, painters of all skill levels learn from an experienced artist as they create their own pieces", "address": "Austin Java Mister Tramps Malaga Tapas and Bar Austin Java Mister Tramps Malaga Tapas and Bar Lucy's Retired Surfers Bar & Restaurant Upper Decks El Ceviche Grill 1206 Parkway ,    8565 Research Boulevard ,    440 W 2nd St ,    1206 Parkway ,    8565 Research Boulevard ,    440 W 2nd St ,    506 West Avenue ,    301 Barton Springs Rd ,     115 San Jacinto Boulevard ,     Austin Texas 78703   Austin Texas 78758   Austin Texas 78701   Austin Texas 78703   Austin Texas 78758   Austin Texas 78701   Austin Texas 78701   Austin Texas 78704 (512) 983-9918   Austin Texas 78701 (512) 494-5649  "},
{"saving": "$8", "name": "Austin Go 2 Danz \u2013 Downtown Association\n            ", "price": "$7", "value": "$15", "discount": "53%", "details": "Pilates meets sensual dance moves and theatricality in one-hour burlesque dance class", "address": "Downtown Association Downtown Association 317 N L.B.J. ,     317 N L.B.J. ,     San Marcos Texas 78666 (512) 393-3269   San Marcos Texas 78666 (512) 393-3269  ", "options": ["$7 for one 60-minute burlesque dance class (a $15 value)", "$20 for three 60-minute burlesque dance classes (a $45 value)"], "description": "One or Three Burlesque Dance Classes (Up to 56% Off)"},
{"saving": "$25", "name": "Austin Saddleup-Austin \u2013 Austin\n            ", "price": "$25", "value": "$50", "discount": "50%", "details": "30-minute lessons cover the basics of safe and sound horseback riding for students of any age or experience level", "address": "Austin Austin East Slaughter Lane ,     East Slaughter Lane ,     Austin Texas 78747 (512) 289-1882   Austin Texas 78747 (512) 289-1882  ", "options": ["$25 for one 30-minute horseback-riding lesson (a $50 value)", "$49 for two 30-minute horseback-riding lessons (a $100 value)"], "description": "One or Two 30-Minute Horseback-Riding Lessons (Up to 51% Off)"},
{"price": "$1,299", "address": "China Beijing International Hotel China Beijing International Hotel Broadway Mansions Hotel, No.20 North Suzhou Road, Hongkou District ,    No.9 Jiangguo Mennei Street, Dongcheng District ,    Broadway Mansions Hotel, No.20 North Suzhou Road, Hongkou District ,    No.9 Jiangguo Mennei Street, Dongcheng District ,    Shanghai -   Beijing 100005 -   Shanghai -   Beijing 100005 -  ", "options": ["Round-trip airfare on Air China", "Accommodations at 4-star ", " and the 4-star ", "All intra-China flights and ground transportation", "Seven breakfast buffets and one lunch", "Guided tour of Tian Zi Fang in Shanghai", "Guided city tour of Beijing", "Full-day trip to Great Wall of China with lunch ", "English-speaking tour director and local guides"], "name": "Miami Tour of Shanghai and Beijing with Round-Trip Airfare \u2013 China\n              ", "description": "9-Day Tour from Friendly Planet Travel with Round-Trip Airfare, 4-Star Hotels, and Some Meals"},
{"saving": "$31", "name": "Austin Premier Party Cruises \u2013 Lake Travis\n            ", "price": "$29", "value": "$60", "discount": "52%", "details": "Cruise guests enjoy a fajita buffet, music from an in-boat DJ, and a quick dip in the water as the sun sets over Lake Travis", "address": "Lake Travis Lake Travis 16107-B Farm to Market 2769 ,    16107-B Farm to Market 2769 ,    Leander Texas 78641   Leander Texas 78641  ", "options": ["$29 for a ", " for one (a $60 value) ", "$49 for a BYOB sunset cruise for two (a $120 value)", "$99 for a BYOB sunset cruise for four (a $240 value)"], "description": "Three-Hour BYOB Sunset Cruise on Lake Travis for One, Two, or Four with Fajita Buffet, Swimming, and DJ (Up to 59% Off)"},
{"saving": "$15", "name": "Austin McKenna Children's Museum \u2013 New Braunfels\n            ", "price": "$15", "value": "$30", "discount": "50%", "details": "Families explore exhibits that foster creativity & learning, clamber up 30-foot structure & participate in educational activities", "address": "New Braunfels New Braunfels 801 West San Antonio Street ,     801 West San Antonio Street ,     New Braunfels Texas 78130 (830) 606-9525   New Braunfels Texas 78130 (830) 606-9525  "},
{"saving": "$14", "name": "Austin Cedar Park Driving Range \u2013 Hur Industrial Park\n            ", "price": "$13", "value": "$27", "discount": "52%", "details": "300-yard range features both natural grass and covered, artificial-turf hitting bays for golfers to hone their swings", "address": "Hur Industrial Park Hur Industrial Park 1700 Hur Industrial Blvd. ,     1700 Hur Industrial Blvd. ,     Cedar Park Texas 78613 (512) 267-6905   Cedar Park Texas 78613 (512) 267-6905  ", "options": ["$13 for a punch card for 3 medium buckets of driving-range balls (80 balls/bucket; a $9 value each; a $27 total value)", "$21 for a punch card for 5 medium buckets of driving-range balls (a $45 total value)", "$40 for a punch card for 10 medium buckets of driving-range balls (a $90 total value)"], "description": "3, 5, or 10 Driving-Range Visits with Range Balls (Up to 56% Off)"},
{"saving": "$30", "name": "Austin FillaseatAustin \u2013 Online Deal\n            ", "price": "$30", "value": "$60", "discount": "50%", "details": "Members grab free tickets to concerts, sporting events, and shows by searching regularly updated online database", "address": "DUMMY ADDRESS 600 Congress Ave ,     Austin Texas 78701 (619) 609-9115  ", "options": ["$30 for a 6-month Mini Duet seat-filling membership (a $60 value)", "$40 for a 12-month Duet seat-filling gift membership (a $79.95 value)"], "description": "6- or 12-Month Membership for Free Concerts, Shows, and Sports Events (Half Off) "},
{"saving": "$515", "name": "Austin Udemy \u2013 Online Deal\n            ", "price": "$99", "value": "$614", "discount": "84%", "details": "A coding bundle includes 10 lecture series on programming languages, such as Ruby, MySQL5, PHP, and JavaScript", "options": ["C++ Fundamentals Part I and Part II by Paul Deitel", "Beginners Ruby Programming Training by Infinite Skills", "HTML and CSS for Beginners! by Mark Lassoff", "Learn Python, it's CAKE (Beginners) by Jason Elbourne", "Learning MySQL5 \u2014 An Easy Way to Master MySQL by Infinite Skills  ", "PHP Punch in the Face by Orlando FL Jesse Boyer", "AJAX Development by Mark Lassoff", "JavaScript Basics: Parts I and II by Paul Deitel", "Servlets and JSPs: Creating Web Applications with Java by John Purcell ", "Coding for Entrepreneurs by Justin Mitchel"]},
{"saving": "$50", "name": "Austin Rusty Wallace Racing Experience \u2013 Thunderhill Raceway\n            ", "price": "$49", "value": "$99", "discount": "51%", "details": "Professional drivers sate passengers' need for speed in stock cars during exciting ride-alongs and racing experiences", "address": "Thunderhill Raceway Thunderhill Raceway 24801 IH 35 ,    24801 IH 35 ,    Kyle Texas 78640   Kyle Texas 78640  ", "options": ["$124 for a two-hour, 10-lap Qualifier racing experience (a $249 value)", "$49 for a one-hour, 3-lap shotgun ride-along experience (a $99 value)", "December 7\u20139, 2012", "March 2\u20133, 2013", "March 9\u201310, 2013", "October 26\u201327, 2013", "November 9\u201310, 2013"], "description": "10-Lap Racing Experience or 3-Lap Ride-Along at Thunderhill Raceway (Up to 51% Off)"},
{"saving": "$251", "name": "Austin Lone Star Aquatics \u2013 Walsh Landing\n            ", "price": "$199", "value": "$450", "discount": "56%", "details": "Certified captains can take boats around Lake Austin's wide waters and riverfront architecture or pull water skis, kneeboards, and tubes", "address": "Walsh Landing Walsh Landing 1600 Scenic Dr. ,     1600 Scenic Dr. ,     Austin Texas 78723 (512) 696-2045   Austin Texas 78723 (512) 696-2045  "},
{"saving": "$23", "name": "Austin Austin Handmade Arts Market \u2013 Austin\n            ", "price": "$22", "value": "$45", "discount": "51%", "details": "During two sessions, students create and paint their own pieces of pottery under the instruction of a professional artist", "address": "Austin Austin 411 Monroe St W ,    411 Monroe St W ,    Austin Texas 78704   Austin Texas 78704  ", "options": ["$22 for a pottery class for one (a $45 value), plus a complimentary wine or beer", "$45 for a pottery class for two (a $90 value), plus a complimentary wine or beer"], "description": "Two-Session Pottery Class for One or Two (Up to 51% Off), Plus a Complimentary Wine or Beer"},
{"saving": "$25.98", "name": "Austin Museum of the Weird \u2013 Downtown\n            ", "price": "$26", "value": "$51.98", "discount": "50%", "details": "Displays of sideshow curiosities, lifelike wax statues of monsters, and bizarre movie props", "address": "Downtown Downtown 412 East 6th Street ,     412 East 6th Street ,     Austin Texas 78701 (512) 476-5493   Austin Texas 78701 (512) 476-5493  ", "options": ["$26 for a museum outing for two (up to a $51.98 value)", "$50 for a museum outing for four (up to a $103.96 value)"], "description": "Museum Admissions and Souvenir T-Shirts for Two or Four (Up to 52% Off)"},
{"saving": "$40", "name": "Austin FillaseatAustin \u2013 Online Deal\n            ", "price": "$40", "value": "$80", "discount": "50%", "details": "Members grab free tickets to concerts, sporting events, and shows by searching the regularly updated online database"},
{"saving": "$31", "name": "Austin Austin Golf VIP Card \u2013 Online Deal\n            ", "price": "$19", "value": "$50", "discount": "62%", "details": "VIP card gives access to 5 private golf courses, over 10 two-for-one rounds on public courses, and additional discounts", "address": "DUMMY 9041 Research Boulevard, #150 ,     Austin Texas 78758 (843) 813-6860  ", "options": ["$35 for two 2013 Austin Golf VIP Discount Cards (a $100 value)", "$19 for one 2013 Austin Golf VIP Discount Card (a $50 value)"], "description": "One or Two 2013 Austin Golf VIP Discount Cards (Up to 65% Off)"},
{"saving": "$18", "name": "Austin Austin Handmade Arts Market \u2013 Austin\n            ", "price": "$17", "value": "$35", "discount": "51%", "details": "During two-hour class, students create a painting with guidance from a professional artist", "address": "Austin Austin 411 Monroe Street West ,     411 Monroe Street West ,     Austin Texas 78704 (512) 671-0897   Austin Texas 78704 (512) 671-0897  ", "options": ["$17 for a painting class for one (a $35 value), plus complimentary wine or beer", "$34 for a painting class for two (a $70 value), plus complimentary wine or beer"], "description": "Painting Class for One or Two (51% Off)"},
{"saving": "$40", "name": "Austin Texas Winos \u2013 Downtown\n            ", "price": "$40", "value": "$80", "discount": "50%", "details": "Guests sip on a variety of wines as a luxury chartered bus safely shuttles the group from vineyard to vineyard", "address": "Downtown Downtown 258 W. 2nd Street ,     258 W. 2nd Street ,     Austin Texas 78701 (888) 454-6511   Austin Texas 78701 (888) 454-6511  ", "options": ["$40 for a six-hour winery tour for one (an 80 value)", "$79 for a six-hour winery tour for two (a $160 value)", "$157 for a six-hour winery tour for four (a $320 value)"], "description": "Six-Hour Winery Tour for One, Two, or Four (Up to 51% Off)"},
{"saving": "$9", "name": "Austin Austin Zoo \u2013 Southwest Travis\n            ", "price": "$9", "value": "$18", "discount": "50%", "details": "Nonprofit rescue zoo and sanctuary provides a home for more than 300 animals and 100 species", "address": "Southwest Travis Southwest Travis 10808 Rawhide Trail, Austin ,     10808 Rawhide Trail, Austin ,     Austin Texas 78736 (512) 288-1490   Austin Texas 78736 (512) 288-1490  ", "options": ["$9 for admission for two (up to a $18 value)", "$18 for admission for four (up to a $36 value)"], "description": "Zoo Visit for Two or Four (Up to Half Off)"},
{"saving": "$12", "name": "Austin Comal Tubes \u2013 Downtown New Braunfels\n            ", "price": "$12", "value": "$24", "discount": "50%", "details": "Tree-lined shores slip past spring-fed Comal River on leisurely two-hour float through 72-degree waters, with free parking", "address": "Downtown New Braunfels Downtown New Braunfels 664 S Seguin Ave ,    664 S Seguin Ave ,    New Braunfels Texas 78130   New Braunfels Texas 78130  ", "options": ["$12 for rental of two single tubes (up to a $24 value)", "$19 for rental of four single tubes (up to a $48 value)"], "description": "River Tubing for Two or Four at Comal Tubes in New Braunfels (Up to 60% Off)"},
{"saving": "$15", "name": "Austin Texas Paintball \u2013 Texas Paintball\n            ", "price": "$14", "value": "$29", "discount": "52%", "details": "40 acres integrate Hill Country\u2019s naturally dynamic terrain, from tournament-style air ball on open fields to trench warfare in hills", "address": "Texas Paintball Texas Paintball 18300 Medina Vista Ln. ,     18300 Medina Vista Ln. ,     Jonestown Texas 78645 (512) 257-8728   Jonestown Texas 78645 (512) 257-8728  ", "options": ["$14 for a paintball package for one (a $29 value)", "$28 for a paintball package for two (a $58 value)", "$66 for a paintball package for five (a $145 value)"], "description": "Paintball with Marker, Mask, Pod Pack, 200 Paintballs, Air, and Field Fee for One, Two, or Five (Up to 54% Off)"},
{"saving": "$37", "name": "Austin Point Venture Golf Club \u2013 Point Venture\n            ", "price": "$28", "value": "$65", "discount": "57%", "details": "Nine-hole course designed by three-time Masters champion Jimmy Demaret features small greens, sharp doglegs, and scenic views of Lake Travis", "address": "Point Venture Point Venture 422 Venture Blvd. S ,    422 Venture Blvd. S ,    Point Venture Texas 78645   Point Venture Texas 78645  ", "options": ["$28 for an 18-hole round of golf for two (up to a $29 value each) with one large bucket of driving-range balls (a $7 value; up to a $65 total value)", "$49 for an 18-hole round of golf for four with two large buckets of driving-range balls (up to a $130 total value)"], "description": "18-Hole Round of Golf for Two or Four with Cart Rental and Range Balls (Up to 62% Off)"},
{"saving": "$124.99", "name": "Austin BenchPrep \u2013 Online Deal\n            ", "price": "$25", "value": "$149.99", "discount": "83%", "details": "Test prep and software training courses grant access to lessons, videos, practice questions, and reports on PCs, Apple, and Android devices"},
{"saving": "$201", "name": "Austin Ed's Photo Booth \u2013 On Location\n            ", "price": "$199", "value": "$400", "discount": "50%", "details": "Photo booth snaps up to 10 people, who choose color or black-and-white for two strips of studio-quality shots ready in less than 13 seconds", "address": "Downtown 213 West 5th Street, ****DUMMY**** ,     Austin Texas 78701 (512) 522-9808  ", "options": ["$199 for a two-hour photo-booth rental (a $400 value)", "$359 for a four-hour photo-booth rental (an $800 value)"], "description": "Two- or Four-Hour Photo-Booth Rental (Up to 55% Off)"},
{"saving": "$141", "name": "Austin The New Movement \u2013 Austin\n            ", "price": "$59", "value": "$200", "discount": "71%", "details": "Students learn to craft off-the-cuff scenes to form a cohesive show", "address": "Austin Austin 616 Lavaca St ,    616 Lavaca St ,    Austin Texas 78701   Austin Texas 78701  "},
{"saving": "$26", "name": "Austin The Lindy Project \u2013 Multiple Locations\n            ", "price": "$19", "value": "$45", "discount": "58%", "details": "Learn the classic 1920s and '30s partner-dance-style known as the lindy, which incorporates elements of tap, jazz, and the Charleston", "address": "Thursday Nights at Galaxy Dance Studio Wednesday Nights at Tapestry Dance Company Thursday Nights at Galaxy Dance Studio Wednesday Nights at Tapestry Dance Company 1700 S Lamar Blvd. #338 ,    2302 Western Trails Blvd. ,    1700 S Lamar Blvd. #338 ,    2302 Western Trails Blvd. ,    Austin Texas 78704   Austin Texas 78745   Austin Texas 78704   Austin Texas 78745  ", "options": ["$19 for one month of swing-dance lessons for one ($45 value)", "$39 for one month of swing-dance lessons for two ($90 value)"], "description": "One Month of Swing-Dance Lessons for One or Two (Up to 58% Off)"},
{"saving": "$23", "name": "Austin House Wine \u2013 Zilker\n            ", "price": "$22", "value": "$45", "discount": "51%", "details": "Manchego cheese aged for three months in Spain joins a platter of dutch gouda, organic dark chocolate, fruit preserves, and desserts", "address": "Zilker Zilker 408 Josephine St. ,     408 Josephine St. ,     Austin Texas 78704 (512) 322-5210   Austin Texas 78704 (512) 322-5210  ", "options": ["$22 for a cheese, fruit, and dessert tasting for two (a $45 value)", "$45 for a cheese, fruit, and dessert tasting for four (a $90 value)"], "description": "Cheese, Fruit, and Dessert Tasting for Two or Four (Up to 51% Off)"},
{"saving": "$12", "name": "Austin Magic Greens \u2013 Dripping Springs\n            ", "price": "$9", "value": "$21", "discount": "57%", "details": "Mini-golf course lined with flowers and waterfalls hosts scenic outing for small groups or larger birthday parties", "address": "Dripping Springs Dripping Springs 235 Sports Park Road,Dripping Springs ,     235 Sports Park Road,Dripping Springs ,     Dripping Springs Texas 78620 (512) 858-1468   Dripping Springs Texas 78620 (512) 858-1468  ", "options": ["One round of mini golf (a $6 value per person)", "One slice of pizza (a $3 value each)", "One ice-cream treat (a $1.50 value each)", "Reserved pavilion space", "One round of mini golf per child", "Each child receives a hamburger, hot dog, or pizza meal with chips, a drink, and a party favor"], "description": "Mini-Golf Outing for Two or Four or Children\u2019s Birthday Party Package for Up to 10 (Up to 60% Off)"},
{"saving": "$9", "name": "Austin Lady Bird Johnson Wildflower Center \u2013 Circle C Ranch\n            ", "price": "$9", "value": "$18", "discount": "50%", "details": "Guests tour the wildflower center, filled with specimens of wildflowers and plants native to Texas", "address": "Circle C Ranch Circle C Ranch 4801 La Crosse Ave. ,    4801 La Crosse Ave. ,    Austin Texas 78739   Austin Texas 78739  ", "options": ["$9 for general ", " for two (an $18 value)", "$17 for general admission for four (a $36 value)"], "description": "Wildflower Garden Visit for Two or Four (Up to 53% Off)"},
{"saving": "$9", "name": "Austin AMF Bowling Centers \u2013 AMF Showplace Lanes\n            ", "price": "$15", "value": "$24", "discount": "38%", "details": "Bowling center with locations across the country hosts groups of two or four for two hours of bowling", "address": "AMF Showplace Lanes AMF Showplace Lanes 9504 North I-H 35 ,     9504 North I-H 35 ,     Austin Texas 78753 (512) 834-7733   Austin Texas 78753 (512) 834-7733  ", "options": ["$15 for two hours of bowling and shoe rental for two (up to a $48 value)", "$25 for two hours of bowling and shoe rental for four (up to a $96 value)"], "description": "Two Hours of Bowling and Shoe Rental for Two or Four (Up to 48% Off) "},
{"saving": "$12", "name": "Austin Blue Starlite Mini Urban Drive-In \u2013 RMMA\n            ", "price": "$12", "value": "$24", "discount": "50%", "details": "Independent flicks and classic films from the 50s to the 90s fill the screen at Austin's only drive-in movie theater", "address": "RMMA RMMA 1901 E. 51st St. ,    1901 E. 51st St. ,    Austin Texas 78723   Austin Texas 78723  ", "options": ["$12 for two walk-in passes for a single feature and two popcorns (a $24 value)", "$18 for two walk-in passes for a double feature with two popcorns (a $38 value)", "$28 for four walk-in passes for a double feature with two popcorns (a $66 value)"], "description": "Walk-In Passes to Drive-In Movie and Popcorn for Two or Double Feature for Two or Four (Up to 58% Off)"},
{"saving": "$22", "name": "Austin Austin Paintball \u2013 Dripping Springs-Wimberley\n            ", "price": "$22", "value": "$44", "discount": "50%", "details": "Each player receives a Tippmann FT-12 or 98 marker, protective mask, ammo pack, and 100 rounds of paintballs before taking to nine fields", "address": "Dripping Springs-Wimberley Dripping Springs-Wimberley 4150 U.S. 290,Dripping Springs ,     4150 U.S. 290,Dripping Springs ,     Dripping Springs Texas 78620 (512) 858-4448   Dripping Springs Texas 78620 (512) 858-4448  ", "options": ["$22 for a paintball package for two (a $44 value)", "$42 for a paintball package for four (an $88 value)", "$60 for a paintball package for six (a $132 value)"], "description": "Paintball Package for Two, Four, or Six (Up to 55% Off)"},
{"saving": "$10", "name": "Austin Steiner Ranch SUP \u2013 Steiner Ranch\n            ", "price": "$9", "value": "$19", "discount": "53%", "details": "Balance atop stand-up paddleboards while exploring the serene and scenic waters of Lake Austin", "address": "Steiner Ranch Steiner Ranch 12300 River Bend ,     12300 River Bend ,     Austin Texas 78732 (512) 994-7080   Austin Texas 78732 (512) 994-7080  ", "options": ["$9 for a one-hour stand-up paddleboard rental for one (a $19 value)", "$30 for a two-hour stand-up paddleboard rental for two (a $76 value)"], "description": "One-Hour Stand-Up Paddleboard Rental for One or Two-Hour Rental for Two (Up to 61% Off)"},
{"saving": "$793", "name": "Austin Austin Park and Recreation \u2013 Multiple Locations\n            ", "price": "$189", "value": "$982", "discount": "81%", "details": "Small-group golf clinics help players improve skills and on-course strategy during 18-hole rounds at five participating courses", "address": "Jimmy Clay Golf Course and Roy Kizer Golf Course Lions Municipal Golf Course Morris Williams Golf Course Jimmy Clay Golf Course and Roy Kizer Golf Course Lions Municipal Golf Course Morris Williams Golf Course Roy Kizer Golf Course Hancock Golf Course 5400 Jimmy Clay Dr. ,     2901 Enfield Rd. ,     4300 Manor Rd. ,     5400 Jimmy Clay Dr. ,     2901 Enfield Rd. ,     4300 Manor Rd. ,     5400 Jimmy Clay Dr. ,    811 E 41st St. ,     Austin Texas 78744 (512) 444-0999   Austin Texas 78703 (512) 477-6963   Austin Texas 78723 (512) 926-1298   Austin Texas 78744 (512) 444-0999   Austin Texas 78703 (512) 477-6963   Austin Texas 78723 (512) 926-1298   Austin Texas 78744   Austin Texas 78751 (512) 453-0276  "},
{"saving": "$54", "name": "Austin River Place Country Club \u2013 Riverplace\n            ", "price": "$49", "value": "$103", "discount": "52%", "details": "Bermuda-grass fairways beckon golfers, and club membership unlocks tennis courts, pool, and fitness center after lunch", "address": "Riverplace Riverplace 4207 River Place Blvd. ,    4207 River Place Blvd. ,    Austin Texas 78730   Austin Texas 78730  ", "options": ["18 holes of golf with a cart rental and range balls for two (up to a $240 value)", "$40 voucher toward lunch for two at ", "$20 voucher for purchases at the ", "Access to all club facilities, such as the ", ", ", ", and "], "description": "18 Holes of Golf Monday\u2013Thursday or Friday\u2013Sunday, or Daylong Membership for Two with 18 Holes of Golf (Up to 52% Off)"},
{"saving": "$15", "name": "Austin Shore Club Volente Beach Waterpark \u2013 Austin\n            ", "price": "$15", "value": "$30", "discount": "50%", "details": "Waterpark & live concert on the shores of Lake Travis welcomes guests age 18+ to an evening of rides, live music, beach & water volleyball", "address": "Austin Austin 16107 FM 2769 ,     16107 FM 2769 ,     Volente Texas 78641 (512) 258-5110   Volente Texas 78641 (512) 258-5110  ", "options": ["$15 for admission for two to adult night at the waterpark (a $30 total value)", "$29 for admission for four to adult night at the waterpark (a $60 total value)", "One ticket per person (a $12 value)", "One koozie per person (a $3 value)"], "description": "Admission for Two or Four to Adult Night With Concert at Shore Club Volente Beach Waterpark with Koozie (Up to 52% Off)"}]
